<?xml version="1.0" encoding="UTF-8"?>
<svg width="512px" height="270px" viewBox="0 0 512 270" version="1.1" xmlns="http://www.w3.org/2000/svg" xmlns:xlink="http://www.w3.org/1999/xlink">
    <!-- Generator: Sketch 48 (47235) - http://www.bohemiancoding.com/sketch -->
    <title>LC Logo</title>
    <desc>Created with Sketch.</desc>
    <defs>
        <filter x="-2.4%" y="-1.6%" width="104.8%" height="104.6%" filterUnits="objectBoundingBox" id="filter-1">
            <feOffset dx="0" dy="4" in="SourceAlpha" result="shadowOffsetOuter1"></feOffset>
            <feGaussianBlur stdDeviation="4" in="shadowOffsetOuter1" result="shadowBlurOuter1"></feGaussianBlur>
            <feColorMatrix values="0 0 0 0 0   0 0 0 0 0   0 0 0 0 0  0 0 0 0.18 0" type="matrix" in="shadowBlurOuter1" result="shadowMatrixOuter1"></feColorMatrix>
            <feMerge>
                <feMergeNode in="shadowMatrixOuter1"></feMergeNode>
                <feMergeNode in="SourceGraphic"></feMergeNode>
            </feMerge>
        </filter>
    </defs>
    <g id="Black-Bear-Desktop" stroke="none" stroke-width="1" fill="none" fill-rule="evenodd" transform="translate(-772.000000, -4582.000000)">
        <g id="Life-Challenge" transform="translate(121.000000, 4409.000000)">
            <g id="Duo-Image" filter="url(#filter-1)" transform="translate(615.000000, 0.000000)">
                <g id="LC-Logo" transform="translate(44.000000, 177.000000)">
                    <path d="M247.559461,54.5837272 C270.981232,54.5837272 291.818394,65.7529661 304.963127,83 L326,83 L323.973806,79.3701256 C320.334412,73.5187168 315.986012,68.0437632 310.96286,63.0594197 C294.026849,46.254897 271.510563,37 247.559461,37 C223.608358,37 201.091427,46.254897 184.155416,63.0594197 C178.106564,69.0621802 173.029121,75.7716759 169,83 L190.148039,83 C203.292772,65.7504008 224.135104,54.5837272 247.559461,54.5837272" id="Fill-1" fill="#FEFEFE"></path>
                    <path d="M248.501944,199.267718 C227.546241,199.267718 208.654559,190.295512 195.467115,176 L173,176 C176.416064,181.253458 180.408058,186.186781 184.948126,190.719773 C201.924143,207.666267 224.494264,217 248.501944,217 C272.509623,217 295.079097,207.666267 312.055114,190.719773 C316.595181,186.187428 320.583936,181.252812 324,176 L301.539364,176 C288.351271,190.295512 269.457646,199.267718 248.501944,199.267718" id="Fill-3" fill="#FEFEFE"></path>
                    <path d="M364.612114,77.9170645 C358.225906,62.8162965 349.086979,49.2559618 337.446518,37.6132568 C331.212701,31.3772467 324.424854,25.8672103 317.149485,21.1057534 C316.576082,20.7304948 315.996868,20.3655703 315.417654,20 L307,35.685293 C307.044555,35.7143578 307.08911,35.7414849 307.133019,35.7705497 C307.95438,36.3046958 308.766054,36.8511136 309.570626,37.4065739 C326.338779,48.9730646 339.718174,65.1098306 347.913699,84 L367,84 C366.257418,81.9570689 365.462532,79.9289931 364.612114,77.9170645" id="Fill-5" fill="#FEFEFE"></path>
                    <path d="M248.089367,236.324272 C241.441823,236.324272 234.933536,235.722789 228.611568,234.5772 L224,251.708177 C231.880862,253.227033 239.926124,254 248.089367,254 C265.172735,254 281.750655,250.652842 297.361519,244.049425 C312.4347,237.674868 325.970261,228.549479 337.591697,216.928548 C349.213777,205.307618 358.338918,191.772 364.714396,176.699474 C364.813036,176.466745 364.903939,176.232728 365,176 L345.533806,176 C327.651005,211.73117 290.691411,236.324272 248.089367,236.324272" id="Fill-7" fill="#FEFEFE"></path>
                    <path d="M166,54.6602612 L153.699156,42 C144.335176,52.3707687 136.835271,64.1083318 131.371293,76.9820148 C130.526785,78.9724612 129.737422,80.9788822 129,83 L147.951751,83 C152.4776,72.6081448 158.59564,63.0584752 166,54.6602612" id="Fill-9" fill="#FEFEFE"></path>
                    <path d="M131.284332,176.698021 C137.631419,191.739249 146.715925,205.246761 158.285608,216.84356 C169.855933,228.441003 183.331218,237.546801 198.337917,243.908764 C200.998957,245.037178 203.690805,246.062657 206.405759,247 L211,229.894302 C184.555194,220.421159 162.824651,200.92675 150.376299,176 L131,176 C131.096275,176.232245 131.186773,176.46642 131.284332,176.698021" id="Fill-11" fill="#FEFEFE"></path>
                    <path d="M247.832412,17.8922496 C263.3719,17.8922496 278.164167,21.1792603 291.563649,27.0935304 L300,11.2529707 C299.111622,10.8496805 298.217417,10.4555264 297.318679,10.072466 C281.639977,3.38881217 264.990017,0 247.832412,0 C230.67416,0 214.024847,3.38881217 198.346145,10.072466 C186.568665,15.0927109 175.730715,21.8057305 166,30.0744844 L178.417216,43 C197.313373,27.3199733 221.5003,17.8922496 247.832412,17.8922496" id="Fill-13" fill="#FEFEFE"></path>
                    <path d="M8.54237288,109.55 C8.54237288,109.55 8.54237288,108.7562 7.90169492,108.7562 L2.42033898,108.7562 C1.42372881,108.7562 0,108.466667 0,107.383978 C0,106.3 1.28135593,105 2.06440678,105 L19.5050847,105 C20.5016949,105 21,105.866667 21,107.094444 C21,108.466667 20.0745763,108.827778 18.8644068,108.827778 L13.8813559,108.827778 C13.0983051,108.827778 12.6,109.188889 12.4576271,109.838889 L12.4576271,155.844444 C12.4576271,156.638889 11.1762712,157 10.1084746,157 C9.11186441,157 8.61355932,156.494444 8.54237288,155.483333 L8.54237288,109.55 Z" id="Fill-15" fill="#FEFEFE"></path>
                    <path d="M48.1136364,107.044077 C48.1136364,105.876033 48.5454545,105 49.6969697,105 C50.9924242,105 52,105.438017 52,106.460055 L52,156.539945 C52,157.269972 50.5606061,157.926345 49.5530303,157.926345 C48.5454545,157.926345 48.1856061,157.196318 48.1856061,156.101928 L48.1856061,131.353994 C48.1136364,130.550964 47.6098485,130.112948 46.9621212,130.112948 L38.3257576,130.112948 C37.4621212,130.112948 37.1022727,130.258953 37.030303,130.988981 L37.030303,156.612948 C37.030303,157.415978 35.5189394,158 34.5113636,158 C33.5037879,158 33,157.269972 33,156.320937 L33,107.044077 C33,105.876033 33.3598485,105 34.7272727,105 C35.9507576,105 37.030303,105.438017 37.030303,106.460055 L37.030303,124.564738 C37.030303,125.294766 37.030303,125.951791 37.75,126.024793 L47.4659091,126.024793 C47.969697,125.951791 48.1136364,125.513774 48.1136364,125.14876 L48.1136364,107.044077 Z" id="Fill-17" fill="#FEFEFE"></path>
                    <path d="M63,107.036389 C63,105.872738 63.2148342,105.290913 64.2173936,105 L64.5754505,105 L80.6880128,105 C81.6189608,105 80.2583444,109.218234 79.3273964,109.218234 L68.2992427,109.218234 C67.6547402,109.218234 67.0818491,109.509147 67.0818491,110.745526 L67.0818491,123.40023 C67.0818491,124.126862 67.1534605,124.709337 68.2276313,124.709337 L75.1023245,124.709337 C77.1790548,124.709337 75.6752156,129.073028 74.5294334,129.073028 L68.2992427,129.073028 C67.7263516,129.073028 67.0818491,129.218484 67.0818491,130.091222 L67.0818491,151.327851 C67.0818491,152.563581 67.6547402,152.855143 68.2992427,152.855143 L79.255785,152.855143 C80.186733,152.855143 81.475738,157 80.4731786,157 L64.8618961,157 L64.7186733,157 L64.5754505,157 L64.2173936,157 C63.2148342,156.781815 63,156.200639 63,155.036988 L63,107.036389 Z" id="Fill-19" fill="#FEFEFE"></path>
                    <path d="M115,106.927415 C115,105.841155 115.072446,105.261816 116.231589,105.044563 C116.738714,104.972146 118.984554,104.827311 118.984554,106.130824 L118.984554,151.464095 C118.984554,152.767607 119.564125,152.984213 120.288589,152.984213 L131.228,152.984213 C132.169804,152.984213 132.314697,156.967815 131.300447,156.967815 C130.358643,156.967815 116.304036,157.040232 116.231589,156.967815 C115.072446,156.82298 115,156.170577 115,155.011899 L115,106.927415 Z" id="Fill-21" fill="#FEFEFE"></path>
                    <path d="M143,107.094444 C143,105.866667 143.218182,105 144.6,105 C145.981818,105 147,105.505556 147,106.444444 L147,155.988244 C147,156.783333 145.4,157 144.381818,157 C143.290909,157 143,156.638244 143,155.627778 L143,107.094444 Z" id="Fill-23" fill="#FEFEFE"></path>
                    <path d="M158,107.950008 C158,106.57778 158.148156,106 160.000108,106 L174.667563,106 C175.630578,106 174.297173,110.116683 173.26008,110.116683 L163.481776,110.116683 C162.740996,110.116683 162.148371,110.405573 162.148371,111.705578 L162.148371,124.561185 C162.148371,125.211187 162.222449,125.860545 163.407698,125.860545 L170.000646,125.860545 C172.222987,125.860545 170.667348,130.266118 169.482099,130.266118 L163.481776,130.266118 C162.889152,130.266118 162.148371,130.338986 162.148371,131.133433 L162.148371,156.555756 C162.148371,157.277337 160.444576,157.999562 159.629717,157.999562 C158.740781,157.999562 158,158.072429 158,156.339089 L158,107.950008 Z" id="Fill-25" fill="#FEFEFE"></path>
                    <path d="M186,107.036389 C186,105.872738 186.214831,105.290913 187.217374,105 L187.575426,105 L203.688372,105 C204.618666,105 203.258071,109.218234 202.327138,109.218234 L191.299159,109.218234 C190.654667,109.218234 190.081784,109.509147 190.081784,110.745526 L190.081784,123.40023 C190.081784,124.126862 190.153395,124.709337 191.227549,124.709337 L198.102133,124.709337 C200.17883,124.709337 198.675015,129.073028 197.529251,129.073028 L191.299159,129.073028 C190.726277,129.073028 190.081784,129.218484 190.081784,130.091222 L190.081784,151.327851 C190.081784,152.563581 190.654667,152.855143 191.299159,152.855143 L202.255528,152.855143 C203.186461,152.855143 204.475446,157 203.472902,157 L187.861867,157 L187.718646,157 L187.575426,157 L187.217374,157 C186.214831,156.781815 186,156.200639 186,155.036988 L186,107.036389 Z" id="Fill-27" fill="#FEFEFE"></path>
                    <path d="M241.836995,148.515526 C241.910602,150.600055 243.456345,153.261087 247.2839,153.261087 C250.448336,153.261087 252.877361,150.600055 252.877361,148.875039 C252.877361,147.796502 257,147.220641 257,149.378356 C257,153.764404 252.067686,157.574591 246.179798,156.928111 C241.468961,156.35225 237.78862,153.04538 238.009441,148.515526 L238.009441,113.570302 C237.78862,108.897286 241.468961,105.661676 246.179798,105.086457 C252.067686,104.366791 257,108.250164 257,112.63557 C257,114.720741 252.877361,114.218066 252.877361,113.139529 C252.877361,111.413871 250.448336,108.681579 247.2839,108.681579 C243.456345,108.681579 241.910602,111.413871 241.836995,113.427139 L241.836995,148.515526 Z" id="Fill-29" fill="#EC1D24"></path>
                    <path d="M283.113768,107.044077 C283.113768,105.876033 283.545571,105 284.697048,105 C285.991816,105 287,105.438017 287,106.460055 L287,156.539945 C287,157.269972 285.560655,157.926345 284.55247,157.926345 C283.545571,157.926345 283.185092,157.196318 283.185092,156.101928 L283.185092,131.353994 C283.113768,130.550964 282.609997,130.112948 281.962292,130.112948 L273.32622,130.112948 C272.462613,130.112948 272.102134,130.258953 272.030809,130.988981 L272.030809,156.612948 C272.030809,157.415978 270.518854,158 269.511955,158 C268.504413,158 268,157.269972 268,156.320937 L268,107.044077 C268,105.876033 268.360479,105 269.727857,105 C270.950658,105 272.030809,105.438017 272.030809,106.460055 L272.030809,124.564738 C272.030809,125.294766 272.030809,125.951791 272.750482,126.024793 L282.46542,126.024793 C282.969191,125.951791 283.113768,125.513774 283.113768,125.14876 L283.113768,107.044077 Z" id="Fill-31" fill="#EC1D24"></path>
                    <path d="M310.285323,137.011173 C311.285291,137.011173 311.571634,137.011173 311.285291,135.703911 C309.642486,123.357542 308.35745,110.284916 308.143171,110.284916 L307.856829,110.284916 C307.64255,110.284916 306.357514,123.357542 304.714709,135.703911 C304.428366,137.011173 304.714709,137.011173 305.71404,137.011173 L310.285323,137.011173 Z M318,156.692737 C318,157.709497 317.356526,158 316.49941,158 C316.142916,158 314.499474,158 314.285195,156.909966 C314.285195,156.47486 313.428717,150.519553 312.428111,142.312849 C312.213832,141.513966 311.928127,141.513966 311.713848,141.513966 L304.286152,141.513966 C304.142661,141.513966 303.786168,141.513966 303.571889,142.312849 C302.571283,150.519553 301.714805,156.47486 301.714805,156.909966 C301.571952,158 299.857084,158 299.50059,158 C298.642837,158 298,157.709497 298,156.692737 C298,155.603352 304.214088,108.106145 304.35694,107.307263 C304.571219,106.50838 305.071203,106 305.785466,106 L310.214534,106 C310.928797,106 311.571634,106.50838 311.571634,107.307263 C311.785912,108.106145 318,155.603352 318,156.692737 Z" id="Fill-33" fill="#EC1D24"></path>
                    <path d="M330,106.927415 C330,105.841155 330.072445,105.261816 331.231571,105.044563 C331.738688,104.972146 333.984494,104.827311 333.984494,106.130824 L333.984494,151.464095 C333.984494,152.767607 334.564057,152.984213 335.28851,152.984213 L346.227757,152.984213 C347.169546,152.984213 347.315084,156.967815 346.300202,156.967815 C345.358413,156.967815 331.304663,157.040232 331.231571,156.967815 C330.072445,156.82298 330,156.170577 330,155.011899 L330,106.927415 Z" id="Fill-35" fill="#EC1D24"></path>
                    <path d="M358,106.927415 C358,105.841155 358.072446,105.261816 359.231589,105.044563 C359.738714,104.972146 361.984554,104.827311 361.984554,106.130824 L361.984554,151.464095 C361.984554,152.767607 362.564772,152.984213 363.288589,152.984213 L374.228,152.984213 C375.169804,152.984213 375.314697,156.967815 374.300447,156.967815 C373.358643,156.967815 359.304683,157.040232 359.231589,156.967815 C358.072446,156.82298 358,156.170577 358,155.011899 L358,106.927415 Z" id="Fill-37" fill="#EC1D24"></path>
                    <path d="M386,107.036389 C386,105.872738 386.214834,105.290913 387.217394,105 L387.575451,105 L403.688013,105 C404.618961,105 403.258344,109.218234 402.327396,109.218234 L391.299243,109.218234 C390.65474,109.218234 390.081849,109.509147 390.081849,110.745526 L390.081849,123.40023 C390.081849,124.126862 390.15346,124.709337 391.227631,124.709337 L398.102325,124.709337 C400.179055,124.709337 398.675216,129.073028 397.529433,129.073028 L391.299243,129.073028 C390.726991,129.073028 390.081849,129.218484 390.081849,130.091222 L390.081849,151.327851 C390.081849,152.563581 390.65474,152.855143 391.299243,152.855143 L402.255785,152.855143 C403.186733,152.855143 404.475738,157 403.473179,157 L387.861896,157 L387.718673,157 L387.575451,157 L387.217394,157 C386.214834,156.781815 386,156.200639 386,155.036988 L386,107.036389 Z" id="Fill-39" fill="#EC1D24"></path>
                    <path d="M435,107.453436 L435,156.055901 C435,156.847942 433.487994,158 432.481061,158 C432.193182,158 431.977273,157.85535 431.761364,157.639339 C431.329545,157.279963 431.041667,156.703291 430.825758,156.127905 C430.537879,155.479872 424.204545,134.670817 419.885721,120.846116 L419.885721,156.055901 C419.885721,156.847942 418.375,158 417.367424,158 C416.359848,158 416.07197,156.703291 416.07197,155.695883 L416,107.957462 L416,107.814097 C416,107.453436 416,107.237425 416.143939,106.949411 C416.359848,106.373382 416.719697,106.013363 417.583333,106.013363 L417.943182,106.013363 C418.734848,105.94136 419.381933,106.157371 419.670455,106.7334 C419.814394,106.877407 419.885721,107.093418 419.885721,107.453436 C421.181818,111.485641 427.22663,132.582711 431.184963,145.18335 C431.184963,131.142638 431.113636,107.957462 431.113636,107.957462 C431.113636,106.877407 431.473485,106.013363 432.768297,106.013363 C434.064394,106.013363 435,106.445385 435,107.453436" id="Fill-41" fill="#EC1D24"></path>
                    <path d="M464.988295,151.365501 L464.988295,151.511176 L464.988295,151.80123 C464.69397,156.006367 459.910536,159.63269 454.244785,158.906908 C449.462008,158.326799 445.857186,155.136204 446.004349,150.350959 L446.004349,113.659115 C445.857186,108.945089 449.462008,105.755141 454.244785,105.102519 C460.13128,104.304223 464.988295,108.293115 464.988295,112.71644 C464.988295,114.819332 461.014254,114.238576 461.014254,113.224034 C461.014254,111.411196 458.513151,108.728196 455.422084,108.728196 C451.449357,108.728196 449.904152,111.411196 449.83057,113.585954 L449.83057,150.423473 C449.904152,152.598231 451.449357,155.353745 455.422084,155.353745 C458.438913,155.353745 460.94133,152.671392 461.014254,150.93042 L461.014254,138.02366 C461.014254,137.588579 460.647005,137.297877 460.279099,137.297877 L457.335852,137.297877 C456.379296,137.297877 454.981254,137.007823 454.981254,135.920768 C454.981254,134.904931 456.232134,133.309633 456.967946,133.309633 C456.967946,133.309633 460.499843,132.512632 462.927365,133.309633 C465.281963,134.180443 464.988295,138.2412 464.988295,138.2412 L464.988295,151.293635 L464.988295,151.365501 Z" id="Fill-43" fill="#EC1D24"></path>
                    <path d="M478,107.036389 C478,105.872738 478.214834,105.290913 479.217394,105 L479.575451,105 L495.688013,105 C496.618961,105 495.258344,109.218234 494.327396,109.218234 L483.299243,109.218234 C482.65474,109.218234 482.081849,109.509147 482.081849,110.745526 L482.081849,123.40023 C482.081849,124.126862 482.15346,124.709337 483.227631,124.709337 L490.102325,124.709337 C492.179055,124.709337 490.675216,129.073028 489.529433,129.073028 L483.299243,129.073028 C482.726991,129.073028 482.081849,129.218484 482.081849,130.091222 L482.081849,151.327851 C482.081849,152.563581 482.65474,152.855143 483.299243,152.855143 L494.255785,152.855143 C495.186733,152.855143 496.475738,157 495.473179,157 L479.861896,157 L479.718673,157 L479.575451,157 L479.217394,157 C478.214834,156.781815 478,156.200639 478,155.036988 L478,107.036389 Z" id="Fill-45" fill="#EC1D24"></path>
                </g>
            </g>
        </g>
    </g>
</svg>